<?xml version="1.0" standalone="no"?>
<!DOCTYPE svg PUBLIC "-//W3C//DTD SVG 20010904//EN"
 "http://www.w3.org/TR/2001/REC-SVG-20010904/DTD/svg10.dtd">
<svg version="1.0" xmlns="http://www.w3.org/2000/svg"
 width="192.000000pt" height="192.000000pt" viewBox="0 0 192.000000 192.000000"
 preserveAspectRatio="xMidYMid meet">
<metadata>
Created by potrace 1.11, written by Peter Selinger 2001-2013
</metadata>
<g transform="translate(0.000000,192.000000) scale(0.100000,-0.100000)"
fill="#000000" stroke="none">
<path d="M254 1701 c-17 -11 -36 -34 -43 -52 -8 -22 -11 -228 -11 -696 0 -583
2 -668 16 -694 30 -60 19 -59 749 -59 669 0 687 1 721 34 33 34 34 52 34 726
0 744 2 717 -65 746 -29 12 -148 14 -702 14 -639 0 -669 -1 -699 -19z"/>
</g>
</svg>
